{
  "properties": {
    "incoterm": {
      "type": [
        "string",
        "null"
      ],
      "maxLength": 4,
      "pattern": "^([0-9])*$"
    },
    "currency": {
      "type": [
        "string",
        "null"
      ],
      "maxLength": 4,
      "pattern": "^([0-9])*$"
    },
    "paymentTerms": {
      "type": [
        "string",
        "null"
      ],
      "maxLength": 4,
      "pattern": "^([0-9])*$"
    },
    "shippingInstructions": {
      "type": [
        "string",
        "null"
      ],
      "maxLength": 4,
      "pattern": "^([0-9])*$"
    },
    "containersNo": {
      "type": [
        "string",
        "null"
      ],
      "pattern": "^[1-9][0-9]*$"
    },
    "containersType": {
      "type": [
        "string",
        "null"
      ],
      "maxLength": 4,
      "pattern": "^([0-9])*$"
    },
    "collectionDate": {
      "type": [
        "string",
        "null"
      ],
      "pattern": "^(([0-9])|([0-2][0-9])|([3][0-1]))\\-(Jan|Feb|Mar|Apr|May|Jun|Jul|Aug|Sep|Oct|Nov|Dec)\\-\\d{4}$"
    },
    "numberOfDays": {
      "type": [
        "string",
        "null"
      ],
      "pattern": "^[1-9][0-9]*$"
    },
    "modeOfTransport": {
      "type": [
        "string",
        "null"
      ],
      "maxLength": 4,
      "pattern": "^([0-9])*$"
    },
    "loadingPort": {
      "type": [
        "string",
        "null"
      ],
      "maxLength": 4,
      "pattern": "^([0-9])*$"
    },
    "dischargePort": {
      "type": [
        "string",
        "null"
      ],
      "maxLength": 4,
      "pattern": "^([0-9])*$"
    }
  }
}