{
  "properties": {
    "purchaseOrderCode": {
      "type": "string"
    },
    "shippingDate": {
      "type": "string",
      "pattern": "^([0][1-9]|[1][0-9]|[2][0-9]|[3][0-1])-(Jan|Feb|Mar|Apr|May|Jun|Jul|Aug|Sep|Oct|Nov|Dec)-(\\d{4})( ([0-1][0-9]|[2][0-3]):[0-5][0-9])( (AM|PM))$"
    }
  }
}