{
  "properties": {
    "invoiceTypeCode": {
      "type": [
        "string"
      ],
      "enum": [
        "SALES_INVOICE_WITHOUT_REFERENCE",
        "SALES_INVOICE_FOR_SALES_ORDER"
      ]
    },
    "salesOrderCode": {
      "type": [
        "string",
        "null"
      ],
      "minLength": 10,
      "maxLength": 10,
      "pattern": "^([0-9])*$"    
  	},
    "businessUnitCode": {
      "type": [
        "string"
      ],
      "minLength": 4,
      "maxLength": 4,
      "pattern": "^([0-9])*$"
    },
    "companyCode": {
      "type": [
        "string",
        "null"
      ],
      "minLength": 4,
      "maxLength": 4,
      "pattern": "^([0-9])*$"
    },
    "customerCode": {
      "type": [
        "string",
        "null"
      ],
      "minLength": 6,
      "maxLength": 6,
      "pattern": "^([0-9])*$"
    },
    "documentOwnerId": {
      "type": [
        "integer"
      ]
    }
  }
}












