{
  "properties": {
    "itemCode": {
      "type": [
        "string"
      ]
    },
    "stockType": {
      "enum": [
        "UNRESTRICTED_USE",
        "DAMAGED_STOCK",
        "QUALITY_INSPECTION",
        null
      ]
    },
    "qtyInDn":{
      "type": [
        "number",
        "null"
      ],
      "maximum": 1000000000,
      "minimum": 0
    }
  }
}












