{
  "properties": {
    "itemCode": {
      "type": [
        "string"
      ],
      "pattern": "^([0-9])*$",
      "minLength": 6,
      "maxLength": 6
    },
    "unitOfMeasureCode": {
      "type": [
        "string"
      ],
      "pattern": "^([0-9])*$",
      "minLength": 4,
      "maxLength": 4
    },
    "quantity": {
      "type": [
        "number"
      ],
      "maximum": 1000000000,
      "minimum": 0.000001,
      "multipleOf": 0.000001
    },
    "salesPrice": {
      "type": [
        "number"
      ],
      "maximum": 1000000000,
      "minimum": 0,
      "multipleOf": 0.000001
    }
  }
}