{
  "properties": {
    "salesReturnOrderCode": {
      "type": [
        "string"
      ],
      "pattern": "^([0-9])*$",
      "minLength": 10,
      "maxLength": 10
    },
    "itemId": {
      "type": [
        "number"
      ]
    },
    "returnReasonCode": {
      "type": [
        "string",
        "null"
      ],
      "pattern": "^([0-9])*$",
      "minLength": 4,
      "maxLength": 4
    },
    "returnQuantity": {
      "type": [
        "number"
      ],
      "maximum": 1000000000,
      "minimum": 0.000001,
      "multipleOf": 0.000001
    }
  }
}