{
  "properties": {
    "itemCode": {
      "type": [
        "string"
      ],
      "minLength": 6,
      "maxLength": 6,
      "pattern": "^([0-9])*$"
    },
    "vendorCode": {
      "type": [
        "string"
      ],
      "minLength": 6,
      "maxLength": 6,
      "pattern": "^([0-9])*$"
    },
    "itemVendorCode": {
      "type": [
        "string"
      ],
      "pattern": "^([\u0621-\u064A\u0660-\u0669\uFE70-\uFEFF]|[ A-Za-z0-9\u0621-\u064A\u0660-\u0669\uFE70-\uFEFF_\/().*%,-])*$",
      "maxLength": 100
    },
    "oldItemNumber": {
      "type": [
        "string"
      ],
      "maxLength": 20,
      "pattern": "^[0-9]*[1-9][0-9]*$"
    },
    "purchaseUnitCode": {
      "type": [
        "string"
      ],
      "minLength": 4,
      "maxLength": 4,
      "pattern": "^([0-9])*$"
    },
    "unitOfMeasureCode": {
      "type": [
        "string"
      ],
      "minLength": 4,
      "maxLength": 4,
      "pattern": "^([0-9])*$"
    },
    "currencyCode": {
      "type": [
        "string",
        "null"
      ],
      "minLength": 4,
      "maxLength": 4,
      "pattern": "^([0-9])*$"
    },
    "price": {
      "type": [
        "number",
        "null"
      ],
      "minimum": 0,
      "maximum": 1000000000
    }
  }
}