{
  "properties": {
    "itemCodeAtVendor": {
      "type": [
        "string"
      ],
      "pattern": "^([\u0621-\u064A\u0660-\u0669\uFE70-\uFEFF]|[ A-Za-z0-9\u0621-\u064A\u0660-\u0669\uFE70-\uFEFF_\/().*%,-])*$",
      "maxLength": 100
    },
    "currencyCode": {
      "type": [
        "string",
        "null"
      ],
      "minLength": 4,
      "maxLength": 4,
      "pattern": "^([0-9])*$"
    },
    "price": {
      "type": [
        "number",
        "null"
      ],
      "minimum": 0,
      "maximum": 1000000000
    }
  }
}