{
  "properties": {
    "vendorCode": {
      "type": [
        "string"
      ]
    },
    "vendorName": {
      "type": [
        "string"
      ],
      "pattern": "^([\u0621-\u064A\u0660-\u0669\uFE70-\uFEFF]|[ A-Za-z0-9_\/().%,-])*$",
      "maxLength": 100
    },
    "purchaseUnitCodes": {
      "type": "array",
      "items": {
        "type": "string"
      }
    },
    "purchaseResponsibleCode": {
      "type": [
        "string"
      ]
    },
    "accountWithVendor": {
      "type": [
        "string",
        "null"
      ],
      "pattern": "^([\u0621-\u064A\u0660-\u0669\uFE70-\uFEFF]|[ A-Za-z0-9_\/().%,-])*$",
      "maxLength": 100
    }
  }
}
	